{"hash":"eeb4ec9630b2f85aab95bcf983a0368bffeae5d8","data":{"tag":{"title":"personal","belongsTo":{"totalCount":4,"pageInfo":{"totalPages":2,"currentPage":1},"edges":[{"node":{"title":"Introduction to KTC","timeToRead":1,"date":"April 8, 2019","path":"/introduction-to-gridsome","summary":"GrLorem ipsum dolor sit amet, consectetur adipiscing elit, sed do eiusmod tempor incididunt ut labore et dolore magna aliqua. Faucibus a pellentesque sit amet porttitor eget. Lectus urna duis convallis convallis tellus id. Ultrices mi tempus imperdiet nulla malesuada. Leo urna molestie at elementum eu facilisis sed odio.","tags":[{"title":"taxes"},{"title":"personal"},{"title":"proprietor"}]}},{"node":{"title":"How to Explicabo Suscipit","timeToRead":1,"date":"April 5, 2019","path":"/how-to-get-better-at-coding","summary":"Lorem ipsum dolor sit amet consectetur adipisicing elit. Hic rerum earum quos explicabo suscipit maxime iste qui nihil. Reiciendis asperiores minus necessitatibus","tags":[{"title":"personal"},{"title":"taxes"},{"title":"CRA"}]}},{"node":{"title":"Top 5 CRA changes for 2020","timeToRead":1,"date":"April 3, 2019","path":"/top-5-cra-changes-for-2020","summary":"Lorem ipsum dolor sit amet consectetur adipisicing elit. Hic rerum earum quos explicabo suscipit maxime iste qui nihil. Reiciendis asperiores minus necessitatibus","tags":[{"title":"taxes"},{"title":"personal"},{"title":"proprietor"}]}}]}}},"context":{}}