{"hash":"eeb4ec9630b2f85aab95bcf983a0368bffeae5d8","data":{"tag":{"title":"personal","belongsTo":{"totalCount":4,"pageInfo":{"totalPages":2,"currentPage":2},"edges":[{"node":{"title":"Vue vs React Comparison","timeToRead":1,"date":"March 27, 2019","path":"/vue-vs-react-comparison","summary":"Lorem ipsum dolor sit amet consectetur adipisicing elit. Hic rerum earum quos explicabo suscipit maxime iste qui nihil. Reiciendis asperiores minus necessitatibus","tags":[{"title":"taxes"},{"title":"proprietor"},{"title":"react"},{"title":"personal"}]}}]}}},"context":{}}