{"hash":"eeb4ec9630b2f85aab95bcf983a0368bffeae5d8","data":{"posts":{"totalCount":8,"pageInfo":{"totalPages":3,"currentPage":1},"edges":[{"node":{"id":"595d70f0e11012281a488130fb1c331d","title":"Introduction to KTC","date":"April 8, 2019","summary":"GrLorem ipsum dolor sit amet, consectetur adipiscing elit, sed do eiusmod tempor incididunt ut labore et dolore magna aliqua. Faucibus a pellentesque sit amet porttitor eget. Lectus urna duis convallis convallis tellus id. Ultrices mi tempus imperdiet nulla malesuada. Leo urna molestie at elementum eu facilisis sed odio.","timeToRead":1,"path":"/introduction-to-gridsome"}},{"node":{"id":"f626b112c8575cb23aaf5ef200c2fd32","title":"How to Explicabo Suscipit","date":"April 5, 2019","summary":"Lorem ipsum dolor sit amet consectetur adipisicing elit. Hic rerum earum quos explicabo suscipit maxime iste qui nihil. Reiciendis asperiores minus necessitatibus","timeToRead":1,"path":"/how-to-get-better-at-coding"}},{"node":{"id":"7619d0a9f84ee79d62db906140503580","title":"Top 5 CRA changes for 2020","date":"April 3, 2019","summary":"Lorem ipsum dolor sit amet consectetur adipisicing elit. Hic rerum earum quos explicabo suscipit maxime iste qui nihil. Reiciendis asperiores minus necessitatibus","timeToRead":1,"path":"/top-5-cra-changes-for-2020"}}]}},"context":{}}